…
``` r
pols_month
```

    ## # A tibble: 822 x 9
    ##     year month gov_gop sen_gop rep_gop gov_dem sen_dem rep_dem president 
    ##    <int> <chr>   <dbl>   <dbl>   <dbl>   <dbl>   <dbl>   <dbl> <chr>     
    ##  1  1947 Apr        23      51     253      23      45     198 democratic
    ##  2  1947 Aug        23      51     253      23      45     198 democratic
    ##  3  1947 Dec        24      51     253      23      45     198 democratic
    ##  4  1947 Feb        23      51     253      23      45     198 democratic
    ##  5  1947 Jan        23      51     253      23      45     198 democratic
    ##  6  1947 Jul        23      51     253      23      45     198 democratic
    ##  7  1947 Jun        23      51     253      23      45     198 democratic
    ##  8  1947 Mar        23      51     253      23      45     198 democratic
    ##  9  1947 May        23      51     253      23      45     198 democratic
    ## 10  1947 Nov        24      51     253      23      45     198 democratic
    ## # … with 812 more rows
…
    ## Parsed with column specification:
    ## cols(
    ##   date = col_character(),
    ##   close = col_double()
    ## )

``` r
snp
```

    ## # A tibble: 787 x 3
    ##     year month close
    ##    <int> <chr> <dbl>
    ##  1  2015 Jul   2080.
    ##  2  2015 Jun   2063.
    ##  3  2015 May   2107.
    ##  4  2015 Apr   2086.
    ##  5  2015 Mar   2068.
    ##  6  2015 Feb   2104.
    ##  7  2015 Jan   1995.
    ##  8  2014 Dec   2059.
    ##  9  2014 Nov   2068.
    ## 10  2014 Oct   2018.
    ## # … with 777 more rows
…
``` r
unemployment
```

    ## # A tibble: 816 x 3
    ##     year month unemployment_percentage
    ##    <dbl> <chr>                   <dbl>
    ##  1  1948 apr                       3.9
    ##  2  1948 aug                       3.9
    ##  3  1948 dec                       4  
    ##  4  1948 feb                       3.8
    ##  5  1948 jan                       3.4
    ##  6  1948 jul                       3.6
    ##  7  1948 jun                       3.6
    ##  8  1948 mar                       4  
    ##  9  1948 may                       3.5
    ## 10  1948 nov                       3.8
    ## # … with 806 more rows
…
    ## Joining, by = c("year", "month")

``` r
pols_tidy = 
  left_join(pols, unemployment)
```

    ## Joining, by = c("year", "month")

``` r
pols_tidy
```

    ## # A tibble: 822 x 11
    ##     year month gov_gop sen_gop rep_gop gov_dem sen_dem rep_dem president close
    ##    <dbl> <chr>   <dbl>   <dbl>   <dbl>   <dbl>   <dbl>   <dbl> <chr>     <dbl>
    ##  1  1947 Apr        23      51     253      23      45     198 democrat…    NA
    ##  2  1947 Aug        23      51     253      23      45     198 democrat…    NA
    ##  3  1947 Dec        24      51     253      23      45     198 democrat…    NA
    ##  4  1947 Feb        23      51     253      23      45     198 democrat…    NA
    ##  5  1947 Jan        23      51     253      23      45     198 democrat…    NA
    ##  6  1947 Jul        23      51     253      23      45     198 democrat…    NA
    ##  7  1947 Jun        23      51     253      23      45     198 democrat…    NA
    ##  8  1947 Mar        23      51     253      23      45     198 democrat…    NA
    ##  9  1947 May        23      51     253      23      45     198 democrat…    NA
    ## 10  1947 Nov        24      51     253      23      45     198 democrat…    NA
    ## # … with 812 more rows, and 1 more variable: unemployment_percentage <dbl>
…
